{
  "name": "MTI",
  "version": "1.0.0",
  "hash": "7984f30110b9b6d0d151c1edd5e8e2fe6dcf311327a7bfc521589b3c7d3421d4",
  "pubKey": "927c8f340255d5a2d7b839ce4859f7dc33c64e5967fe40dde023c0751a53dff3925eec1eaaeb60f83c203c85e9c5b223",
  "sign": "802dc0a28fa90e658761ce7baf323f966ccb32b192eee1770a52fc0a6e3a3fb147d64bb158361600f7320d50cba30cae060987ccb7e4176936a25d02f8b1ae5ab86a0f6110306984a2f3a251ed0d639838a83ab75dd449879073f8c08bb78b47",
  "logo": "https://gitlab.com/QuangFiIt/upload_app/-/raw/main/top-web-usa-logo/iconSetting.jpg",
  "id": "connectwallet.metanode.co",
  "urlZip": "https://metanode.co/zip/miniWallet/miniWallet.zip"
}
