<svg width="24" height="24" viewBox="0 0 24 24" fill="none" xmlns="http://www.w3.org/2000/svg">
<g clip-path="url(#clip0_12100_23965)">
<path d="M8.7273 0H2.18184C0.978495 0 0 0.978495 0 2.18184V8.7273C0 9.93059 0.978495 10.9091 2.18184 10.9091H8.7273C9.93059 10.9091 10.9091 9.93064 10.9091 8.7273V2.18184C10.9091 0.978495 9.93059 0 8.7273 0Z" fill="white"/>
<path d="M21.821 0H15.2756C14.0722 0 13.0938 0.978495 13.0938 2.18184V8.7273C13.0938 9.93059 14.0722 10.9091 15.2756 10.9091H21.821C23.0243 10.9091 24.0029 9.93064 24.0029 8.7273V2.18184C24.0028 0.978495 23.0243 0 21.821 0Z" fill="white"/>
<path d="M8.7273 13.0908H2.18184C0.978495 13.0908 0 14.0693 0 15.2727V21.8181C0 23.0214 0.978495 24 2.18184 24H8.7273C9.93059 24 10.9091 23.0215 10.9091 21.8181V15.2727C10.9091 14.0693 9.93059 13.0908 8.7273 13.0908Z" fill="white"/>
<path d="M21.2735 17.4543H19.6371V15.8179C19.6371 15.5164 19.3931 15.2725 19.0916 15.2725H18.0007C17.6992 15.2725 17.4553 15.5164 17.4553 15.8179V17.4543H15.8189C15.5174 17.4543 15.2734 17.6983 15.2734 17.9998V19.0907C15.2734 19.3922 15.5174 19.6361 15.8189 19.6361H17.4553V21.2725C17.4553 21.574 17.6992 21.818 18.0007 21.818H19.0916C19.3931 21.818 19.6371 21.574 19.6371 21.2725V19.6361H21.2735C21.575 19.6361 21.8189 19.3922 21.8189 19.0907V17.9998C21.8189 17.6983 21.575 17.4543 21.2735 17.4543Z" fill="white"/>
</g>
<defs>
<clipPath id="clip0_12100_23965">
<rect width="24" height="24" fill="white"/>
</clipPath>
</defs>
</svg>
