<svg width="31" height="24" viewBox="0 0 31 24" fill="none" xmlns="http://www.w3.org/2000/svg">
<path d="M6.468 2.25C7.36933 2.25 8.1 2.98067 8.1 3.882V6.618C8.1 7.51933 7.36933 8.25 6.468 8.25H3.732C2.83067 8.25 2.1 7.51933 2.1 6.618V3.882C2.1 2.98067 2.83067 2.25 3.732 2.25L6.468 2.25Z" fill="url(#paint0_linear_12736_33630)"/>
<path d="M15.3 3.882C15.3 2.98067 14.5693 2.25 13.668 2.25H10.932C10.0307 2.25 9.3 2.98067 9.3 3.882V6.618C9.3 7.51933 10.0307 8.25 10.932 8.25H13.668C14.5693 8.25 15.3 7.51933 15.3 6.618L15.3 3.882Z" fill="url(#paint1_linear_12736_33630)"/>
<path d="M22.5 3.882C22.5 2.98067 21.7693 2.25 20.868 2.25L18.132 2.25C17.2307 2.25 16.5 2.98067 16.5 3.882V6.618C16.5 7.51933 17.2307 8.25 18.132 8.25H20.868C21.7693 8.25 22.5 7.51933 22.5 6.618V3.882Z" fill="url(#paint2_linear_12736_33630)"/>
<path d="M20.7822 12.8169L17.7153 9.75L16.5 10.9653L19.566 14.0313H17.3449V15.75H22.5009V10.594H20.7822V12.8169Z" fill="url(#paint3_linear_12736_33630)"/>
<path d="M8.09883 11.382C8.09883 10.4807 7.36816 9.75 6.46683 9.75H3.73083C2.8295 9.75 2.09883 10.4807 2.09883 11.382L2.09883 14.118C2.09883 15.0193 2.8295 15.75 3.73083 15.75H6.46683C7.36816 15.75 8.09883 15.0193 8.09883 14.118V11.382Z" fill="url(#paint4_linear_12736_33630)"/>
<path d="M15.2988 11.382C15.2988 10.4807 14.5682 9.75 13.6668 9.75H10.9308C10.0295 9.75 9.29883 10.4807 9.29883 11.382V14.118C9.29883 15.0193 10.0295 15.75 10.9308 15.75H13.6668C14.5682 15.75 15.2988 15.0193 15.2988 14.118V11.382Z" fill="url(#paint5_linear_12736_33630)"/>
<path fill-rule="evenodd" clip-rule="evenodd" d="M3 0C1.34315 0 0 1.34315 0 3V15C0 16.6569 1.34315 18 3 18H6V18.75H7.125V18H21.75C23.4069 18 24.75 16.6569 24.75 15V7.125H25.4063V6H24.75V3C24.75 1.34315 23.4069 0 21.75 0H3ZM21.75 1.125H3C1.96447 1.125 1.125 1.96447 1.125 3V15C1.125 16.0355 1.96447 16.875 3 16.875H21.75C22.7855 16.875 23.625 16.0355 23.625 15V3C23.625 1.96447 22.7855 1.125 21.75 1.125Z" fill="url(#paint6_linear_12736_33630)"/>
<path d="M8.63284 22.8393L8.41451 23.9429C8.60388 23.9804 8.79964 24 9 24H9.78125V22.875H9C8.87334 22.875 8.75069 22.8626 8.63284 22.8393Z" fill="url(#paint7_linear_12736_33630)"/>
<path d="M26.9688 22.875V24H27.75C27.9504 24 28.1461 23.9804 28.3355 23.9429L28.1172 22.8393C27.9993 22.8626 27.8767 22.875 27.75 22.875H26.9688Z" fill="url(#paint8_linear_12736_33630)"/>
<path d="M28.791 22.5599L29.4169 23.4947C29.744 23.2757 30.0257 22.994 30.2447 22.6668L29.3099 22.041C29.1726 22.2459 28.9959 22.4226 28.791 22.5599Z" fill="url(#paint9_linear_12736_33630)"/>
<path d="M29.625 9.75H30.75V9C30.75 8.79964 30.7304 8.60388 30.6929 8.41451L29.5893 8.63284C29.6126 8.75069 29.625 8.87334 29.625 9V9.75Z" fill="url(#paint10_linear_12736_33630)"/>
<path d="M29.3099 7.95901L30.2447 7.33315C30.0257 7.006 29.744 6.72433 29.4169 6.5053L28.791 7.44014C28.9959 7.57736 29.1726 7.75406 29.3099 7.95901Z" fill="url(#paint11_linear_12736_33630)"/>
<path d="M7.125 20.25H6V21C6 21.2004 6.01964 21.3961 6.0571 21.5855L7.16071 21.3672C7.1374 21.2493 7.125 21.1267 7.125 21V20.25Z" fill="url(#paint12_linear_12736_33630)"/>
<path d="M7.95901 22.5599L7.33315 23.4947C7.006 23.2757 6.72433 22.994 6.5053 22.6668L7.44014 22.041C7.57736 22.2459 7.75406 22.4226 7.95901 22.5599Z" fill="url(#paint13_linear_12736_33630)"/>
<path d="M26.9688 7.125V6H27.75C27.9504 6 28.1461 6.01964 28.3355 6.0571L28.1172 7.16071C27.9993 7.1374 27.8767 7.125 27.75 7.125H26.9688Z" fill="url(#paint14_linear_12736_33630)"/>
<path d="M29.625 11.25H30.75V12.75H29.625V11.25Z" fill="url(#paint15_linear_12736_33630)"/>
<path d="M29.625 14.25H30.75V15.75H29.625V14.25Z" fill="url(#paint16_linear_12736_33630)"/>
<path d="M29.625 17.25H30.75V18.75H29.625V17.25Z" fill="url(#paint17_linear_12736_33630)"/>
<path d="M29.625 20.25H30.75V21C30.75 21.2004 30.7304 21.3961 30.6929 21.5855L29.5893 21.3672C29.6126 21.2493 29.625 21.1267 29.625 21V20.25Z" fill="url(#paint18_linear_12736_33630)"/>
<path d="M25.4063 22.875V24H23.8438V22.875H25.4063Z" fill="url(#paint19_linear_12736_33630)"/>
<path d="M22.2813 22.875V24H20.7188V22.875H22.2813Z" fill="url(#paint20_linear_12736_33630)"/>
<path d="M19.1563 22.875V24H17.5938V22.875H19.1563Z" fill="url(#paint21_linear_12736_33630)"/>
<path d="M16.0313 22.875V24H14.4688V22.875H16.0313Z" fill="url(#paint22_linear_12736_33630)"/>
<path d="M12.9063 22.875V24H11.3438V22.875H12.9063Z" fill="url(#paint23_linear_12736_33630)"/>
<defs>
<linearGradient id="paint0_linear_12736_33630" x1="15.375" y1="0" x2="15.375" y2="24" gradientUnits="userSpaceOnUse">
<stop stop-color="#6694FF"/>
<stop offset="1" stop-color="#004DFF"/>
</linearGradient>
<linearGradient id="paint1_linear_12736_33630" x1="15.375" y1="0" x2="15.375" y2="24" gradientUnits="userSpaceOnUse">
<stop stop-color="#6694FF"/>
<stop offset="1" stop-color="#004DFF"/>
</linearGradient>
<linearGradient id="paint2_linear_12736_33630" x1="15.375" y1="0" x2="15.375" y2="24" gradientUnits="userSpaceOnUse">
<stop stop-color="#6694FF"/>
<stop offset="1" stop-color="#004DFF"/>
</linearGradient>
<linearGradient id="paint3_linear_12736_33630" x1="15.375" y1="0" x2="15.375" y2="24" gradientUnits="userSpaceOnUse">
<stop stop-color="#6694FF"/>
<stop offset="1" stop-color="#004DFF"/>
</linearGradient>
<linearGradient id="paint4_linear_12736_33630" x1="15.375" y1="0" x2="15.375" y2="24" gradientUnits="userSpaceOnUse">
<stop stop-color="#6694FF"/>
<stop offset="1" stop-color="#004DFF"/>
</linearGradient>
<linearGradient id="paint5_linear_12736_33630" x1="15.375" y1="0" x2="15.375" y2="24" gradientUnits="userSpaceOnUse">
<stop stop-color="#6694FF"/>
<stop offset="1" stop-color="#004DFF"/>
</linearGradient>
<linearGradient id="paint6_linear_12736_33630" x1="15.375" y1="0" x2="15.375" y2="24" gradientUnits="userSpaceOnUse">
<stop stop-color="#6694FF"/>
<stop offset="1" stop-color="#004DFF"/>
</linearGradient>
<linearGradient id="paint7_linear_12736_33630" x1="15.375" y1="0" x2="15.375" y2="24" gradientUnits="userSpaceOnUse">
<stop stop-color="#6694FF"/>
<stop offset="1" stop-color="#004DFF"/>
</linearGradient>
<linearGradient id="paint8_linear_12736_33630" x1="15.375" y1="0" x2="15.375" y2="24" gradientUnits="userSpaceOnUse">
<stop stop-color="#6694FF"/>
<stop offset="1" stop-color="#004DFF"/>
</linearGradient>
<linearGradient id="paint9_linear_12736_33630" x1="15.375" y1="0" x2="15.375" y2="24" gradientUnits="userSpaceOnUse">
<stop stop-color="#6694FF"/>
<stop offset="1" stop-color="#004DFF"/>
</linearGradient>
<linearGradient id="paint10_linear_12736_33630" x1="15.375" y1="0" x2="15.375" y2="24" gradientUnits="userSpaceOnUse">
<stop stop-color="#6694FF"/>
<stop offset="1" stop-color="#004DFF"/>
</linearGradient>
<linearGradient id="paint11_linear_12736_33630" x1="15.375" y1="0" x2="15.375" y2="24" gradientUnits="userSpaceOnUse">
<stop stop-color="#6694FF"/>
<stop offset="1" stop-color="#004DFF"/>
</linearGradient>
<linearGradient id="paint12_linear_12736_33630" x1="15.375" y1="0" x2="15.375" y2="24" gradientUnits="userSpaceOnUse">
<stop stop-color="#6694FF"/>
<stop offset="1" stop-color="#004DFF"/>
</linearGradient>
<linearGradient id="paint13_linear_12736_33630" x1="15.375" y1="0" x2="15.375" y2="24" gradientUnits="userSpaceOnUse">
<stop stop-color="#6694FF"/>
<stop offset="1" stop-color="#004DFF"/>
</linearGradient>
<linearGradient id="paint14_linear_12736_33630" x1="15.375" y1="0" x2="15.375" y2="24" gradientUnits="userSpaceOnUse">
<stop stop-color="#6694FF"/>
<stop offset="1" stop-color="#004DFF"/>
</linearGradient>
<linearGradient id="paint15_linear_12736_33630" x1="15.375" y1="0" x2="15.375" y2="24" gradientUnits="userSpaceOnUse">
<stop stop-color="#6694FF"/>
<stop offset="1" stop-color="#004DFF"/>
</linearGradient>
<linearGradient id="paint16_linear_12736_33630" x1="15.375" y1="0" x2="15.375" y2="24" gradientUnits="userSpaceOnUse">
<stop stop-color="#6694FF"/>
<stop offset="1" stop-color="#004DFF"/>
</linearGradient>
<linearGradient id="paint17_linear_12736_33630" x1="15.375" y1="0" x2="15.375" y2="24" gradientUnits="userSpaceOnUse">
<stop stop-color="#6694FF"/>
<stop offset="1" stop-color="#004DFF"/>
</linearGradient>
<linearGradient id="paint18_linear_12736_33630" x1="15.375" y1="0" x2="15.375" y2="24" gradientUnits="userSpaceOnUse">
<stop stop-color="#6694FF"/>
<stop offset="1" stop-color="#004DFF"/>
</linearGradient>
<linearGradient id="paint19_linear_12736_33630" x1="15.375" y1="0" x2="15.375" y2="24" gradientUnits="userSpaceOnUse">
<stop stop-color="#6694FF"/>
<stop offset="1" stop-color="#004DFF"/>
</linearGradient>
<linearGradient id="paint20_linear_12736_33630" x1="15.375" y1="0" x2="15.375" y2="24" gradientUnits="userSpaceOnUse">
<stop stop-color="#6694FF"/>
<stop offset="1" stop-color="#004DFF"/>
</linearGradient>
<linearGradient id="paint21_linear_12736_33630" x1="15.375" y1="0" x2="15.375" y2="24" gradientUnits="userSpaceOnUse">
<stop stop-color="#6694FF"/>
<stop offset="1" stop-color="#004DFF"/>
</linearGradient>
<linearGradient id="paint22_linear_12736_33630" x1="15.375" y1="0" x2="15.375" y2="24" gradientUnits="userSpaceOnUse">
<stop stop-color="#6694FF"/>
<stop offset="1" stop-color="#004DFF"/>
</linearGradient>
<linearGradient id="paint23_linear_12736_33630" x1="15.375" y1="0" x2="15.375" y2="24" gradientUnits="userSpaceOnUse">
<stop stop-color="#6694FF"/>
<stop offset="1" stop-color="#004DFF"/>
</linearGradient>
</defs>
</svg>
